<?xml version="1.0" encoding="UTF-8" standalone="no"?>
<!-- Created with Inkscape (http://www.inkscape.org/) -->

<svg
   xmlns:dc="http://purl.org/dc/elements/1.1/"
   xmlns:cc="http://creativecommons.org/ns#"
   xmlns:rdf="http://www.w3.org/1999/02/22-rdf-syntax-ns#"
   xmlns:svg="http://www.w3.org/2000/svg"
   xmlns="http://www.w3.org/2000/svg"
   xmlns:sodipodi="http://sodipodi.sourceforge.net/DTD/sodipodi-0.dtd"
   xmlns:inkscape="http://www.inkscape.org/namespaces/inkscape"
   width="307mm"
   height="220mm"
   viewBox="0 0 307 220"
   version="1.1"
   id="svg8"
   inkscape:version="0.91 r13725"
   sodipodi:docname="triptyque_v1.8.svg"
   inkscape:export-filename="/home/framegane/Bureau/CHATONS/dépliant/triptyque_v1.8"
   inkscape:export-xdpi="82.620003"
   inkscape:export-ydpi="82.620003">
  <defs
     id="defs2">
    <filter
       inkscape:collect="always"
       style="color-interpolation-filters:sRGB"
       id="filter6080"
       x="-0.019223185"
       width="1.0384464"
       y="-0.03657034"
       height="1.0731407">
      <feGaussianBlur
         inkscape:collect="always"
         stdDeviation="0.64851864"
         id="feGaussianBlur6082" />
    </filter>
  </defs>
  <sodipodi:namedview
     id="base"
     pagecolor="#ffffff"
     bordercolor="#666666"
     borderopacity="1.0"
     inkscape:pageopacity="0.0"
     inkscape:pageshadow="2"
     inkscape:zoom="0.5"
     inkscape:cx="600.11715"
     inkscape:cy="394.01785"
     inkscape:document-units="mm"
     inkscape:current-layer="layer1"
     showgrid="false"
     inkscape:window-width="1600"
     inkscape:window-height="837"
     inkscape:window-x="0"
     inkscape:window-y="0"
     inkscape:window-maximized="1"
     showguides="true"
     inkscape:guide-bbox="true" />
  <metadata
     id="metadata5">
    <rdf:RDF>
      <cc:Work
         rdf:about="">
        <dc:format>image/svg+xml</dc:format>
        <dc:type
           rdf:resource="http://purl.org/dc/dcmitype/StillImage" />
        <dc:title></dc:title>
      </cc:Work>
    </rdf:RDF>
  </metadata>
  <g
     inkscape:label="Calque 1"
     inkscape:groupmode="layer"
     id="layer1"
     transform="translate(0,-77)">
    <path
       style="fill:#cccccc;stroke:#e7e7e7;stroke-width:0.23776376px;stroke-linecap:butt;stroke-linejoin:miter;stroke-opacity:1"
       d="m 97.342301,87 0,210"
       id="path342"
       inkscape:connector-curvature="0"
       sodipodi:insensitive="true" />
    <path
       style="fill:#b3b3b3;stroke:#e7e7e7;stroke-width:0.23776376px;stroke-linecap:butt;stroke-linejoin:miter;stroke-opacity:1"
       d="m 195.58599,87 0,210"
       id="path342-3"
       inkscape:connector-curvature="0"
       sodipodi:insensitive="true" />
    <rect
       style="opacity:1;fill:#ffffff;fill-opacity:1;stroke:#a8a8a8;stroke-width:0.3079879;stroke-miterlimit:4;stroke-dasharray:none;stroke-dashoffset:0;stroke-opacity:1"
       id="rect359-6"
       width="297"
       height="210"
       x="7.1054274e-15"
       y="335.63095"
       sodipodi:insensitive="true" />
    <path
       style="fill:#cccccc;stroke:#e7e7e7;stroke-width:0.23776378px;stroke-linecap:butt;stroke-linejoin:miter;stroke-opacity:1"
       d="m 98.137672,336.38691 0,210"
       id="path342-7"
       inkscape:connector-curvature="0"
       sodipodi:insensitive="true" />
    <path
       style="fill:#b3b3b3;stroke:#e7e7e7;stroke-width:0.23776378px;stroke-linecap:butt;stroke-linejoin:miter;stroke-opacity:1"
       d="m 196.38135,336.38691 0,210"
       id="path342-3-5"
       inkscape:connector-curvature="0"
       sodipodi:insensitive="true" />
    <rect
       style="opacity:1;fill:#feca5d;fill-opacity:1;stroke:none;stroke-width:0.26250419;stroke-miterlimit:4;stroke-dasharray:none;stroke-dashoffset:0;stroke-opacity:1"
       id="rect2085"
       width="17.666029"
       height="17.666029"
       x="209.66849"
       y="55.238247" />
    <rect
       style="opacity:1;fill:#e5ae37;fill-opacity:1;stroke:none;stroke-width:0.26250419;stroke-miterlimit:4;stroke-dasharray:none;stroke-dashoffset:0;stroke-opacity:1"
       id="rect2085-1"
       width="17.666029"
       height="17.666029"
       x="229.65561"
       y="55.238247" />
    <rect
       style="opacity:1;fill:#cc9237;fill-opacity:1;stroke:none;stroke-width:0.26250419;stroke-miterlimit:4;stroke-dasharray:none;stroke-dashoffset:0;stroke-opacity:1"
       id="rect2085-5"
       width="17.666029"
       height="17.666029"
       x="249.64273"
       y="55.238247" />
    <rect
       style="opacity:1;fill:#4d2f15;fill-opacity:1;stroke:none;stroke-width:0.26250419;stroke-miterlimit:4;stroke-dasharray:none;stroke-dashoffset:0;stroke-opacity:1"
       id="rect2085-0"
       width="17.666029"
       height="17.666029"
       x="269.62988"
       y="55.238247" />
    <rect
       style="opacity:1;fill:#808080;fill-opacity:1;stroke:none;stroke-width:0.26250419;stroke-miterlimit:4;stroke-dasharray:none;stroke-dashoffset:0;stroke-opacity:1"
       id="rect2085-9"
       width="17.666029"
       height="17.666029"
       x="289.61697"
       y="55.238247" />
    <g
       id="g4648">
      <rect
         y="570.29669"
         x="174.95079"
         height="17.666029"
         width="17.666029"
         id="rect2085-6"
         style="opacity:1;fill:#feca5d;fill-opacity:1;stroke:none;stroke-width:0.26250419;stroke-miterlimit:4;stroke-dasharray:none;stroke-dashoffset:0;stroke-opacity:1" />
      <rect
         y="570.29669"
         x="194.93791"
         height="17.666029"
         width="17.666029"
         id="rect2085-1-8"
         style="opacity:1;fill:#e5ae37;fill-opacity:1;stroke:none;stroke-width:0.26250419;stroke-miterlimit:4;stroke-dasharray:none;stroke-dashoffset:0;stroke-opacity:1" />
      <rect
         y="570.29669"
         x="214.92503"
         height="17.666029"
         width="17.666029"
         id="rect2085-5-4"
         style="opacity:1;fill:#cc9237;fill-opacity:1;stroke:none;stroke-width:0.26250419;stroke-miterlimit:4;stroke-dasharray:none;stroke-dashoffset:0;stroke-opacity:1" />
      <rect
         y="570.29669"
         x="234.91219"
         height="17.666029"
         width="17.666029"
         id="rect2085-0-6"
         style="opacity:1;fill:#4d2f15;fill-opacity:1;stroke:none;stroke-width:0.26250419;stroke-miterlimit:4;stroke-dasharray:none;stroke-dashoffset:0;stroke-opacity:1" />
      <rect
         y="570.29669"
         x="254.89928"
         height="17.666029"
         width="17.666029"
         id="rect2085-9-6"
         style="opacity:1;fill:#808080;fill-opacity:1;stroke:none;stroke-width:0.26250419;stroke-miterlimit:4;stroke-dasharray:none;stroke-dashoffset:0;stroke-opacity:1" />
    </g>
    <rect
       style="opacity:0.26800005;fill:#f2f2f2;fill-opacity:1;stroke:#a8a8a8;stroke-width:0.30258855;stroke-miterlimit:4;stroke-dasharray:none;stroke-dashoffset:0;stroke-opacity:1"
       id="rect1461"
       width="101.17395"
       height="218.69154"
       x="0.95107841"
       y="77.826927"
       inkscape:export-xdpi="90"
       inkscape:export-ydpi="90" />
    <g
       id="g4710"
       transform="translate(5.9868374,-2.7938573)">
      <g
         inkscape:export-ydpi="90"
         inkscape:export-xdpi="90"
         transform="matrix(0.06954922,0,0,0.06954922,212.88402,131.865)"
         id="g340">
        <g
           id="Calque_4">
          <polygon
             style="fill:#feca5d"
             class="st0"
             points="13.5,240.1 169.9,314.8 255.4,284 331,120.5 505.4,604.4 144.8,604.4 "
             id="polygon179" />
          <polygon
             style="fill:#cc9237"
             class="st1"
             points="95.8,355 66.1,357.3 28.9,264 "
             id="polygon181" />
          <polyline
             style="fill:#cc9237"
             class="st1"
             points="364.1,244.3 329.6,150 340.6,262.8  "
             id="polyline183" />
          <circle
             style="fill:#ffffff"
             r="55.700001"
             transform="matrix(0.9877,-0.1564,0.1564,0.9877,-59.4858,58.6365)"
             class="st2"
             cx="342.89999"
             cy="407.29999"
             id="ellipse185" />
          <ellipse
             style="fill:#cc9237"
             transform="matrix(0.9877,-0.1564,0.1564,0.9877,-59.7545,58.7579)"
             class="st1"
             cx="343.5"
             cy="409.10001"
             rx="29.700001"
             ry="37.099998"
             id="ellipse187" />
          <circle
             style="fill:#ffffff"
             r="55.700001"
             transform="matrix(0.9877,-0.1564,0.1564,0.9877,-70.4956,34.5851)"
             class="st2"
             cx="184.5"
             cy="465.20001"
             id="ellipse189" />
          <polygon
             style="fill:#cc9237"
             class="st1"
             points="304.1,475.8 314.1,480.4 299.9,510.6 282.5,516.8 253.3,503.1 257.9,492.4 "
             id="polygon191" />
          <path
             style="fill:#ffffff"
             inkscape:connector-curvature="0"
             class="st2"
             d="m 301.7,517.3 c -7.8,6.7 32.3,20.9 71.2,5.6 15.4,-6 47.6,-29.3 46,-34.1 0,0 -25.5,24.6 -56.5,22.3 -29.8,-2.3 -47.7,-4.9 -60.7,6.2 z"
             id="path193" />
          <ellipse
             style="fill:#cc9237"
             transform="matrix(0.8604,-0.5096,0.5096,0.8604,-212.1454,159.5454)"
             class="st1"
             cx="185.2"
             cy="467"
             rx="29.700001"
             ry="37.099998"
             id="ellipse195" />
          <path
             style="fill:#ffffff"
             inkscape:connector-curvature="0"
             class="st2"
             d="m 289.3,521.8 c 10.3,0.2 -11.5,36.7 -51.3,49.7 -15.7,5.1 -55.3,7.8 -57.2,3 0,0 35.3,2.7 57.7,-18.9 21.6,-20.7 33.8,-34.1 50.8,-33.8 z"
             id="path197" />
          <path
             style="fill:none;stroke:#cc9237;stroke-width:5;stroke-miterlimit:10"
             inkscape:connector-curvature="0"
             class="st3"
             d="m 297.6,527.6 c 4,11 -11.4,26.6 -34.4,34.9"
             id="path199" />
          <path
             style="fill:none;stroke:#cc9237;stroke-width:5;stroke-miterlimit:10"
             inkscape:connector-curvature="0"
             class="st3"
             d="m 298.4,527.3 c 4,11 25.8,13.2 48.7,4.9"
             id="path201" />
        </g>
        <g
           id="Calque_3">
          <polygon
             style="fill:#e5ae37"
             class="st4"
             points="655.3,143.6 729.5,292.7 814.6,324.5 974.6,258.2 847.8,605.1 471.7,602.5 "
             id="polygon204" />
          <polygon
             style="fill:#feca5d"
             class="st0"
             points="647,281.9 622.8,264.4 654.9,169.2 "
             id="polygon206" />
          <polyline
             style="fill:#feca5d"
             class="st0"
             points="923.2,371.1 957.9,276.9 893.3,370  "
             id="polyline208" />
          <polygon
             style="fill:#feca5d"
             class="st0"
             points="741.9,470.3 746.4,480.3 716.1,494.1 698.8,487.6 685.4,458.3 695.8,453.1 "
             id="polygon210" />
          <path
             style="fill:none;stroke:#feca5d;stroke-width:5;stroke-miterlimit:10"
             inkscape:connector-curvature="0"
             class="st5"
             d="m 703.2,504.5 c -4.1,10.9 -25.9,12.9 -48.8,4.3"
             id="path212" />
          <path
             style="fill:none;stroke:#feca5d;stroke-width:5;stroke-miterlimit:10"
             inkscape:connector-curvature="0"
             class="st5"
             d="m 703.2,504.5 c -4.1,10.9 11.1,26.7 34,35.3"
             id="path214" />
          <ellipse
             style="fill:#ffffff"
             transform="matrix(0.1682,-0.9858,0.9858,0.1682,236.7114,1166.6821)"
             class="st2"
             cx="809.59998"
             cy="443.10001"
             rx="42.700001"
             ry="53.900002"
             id="ellipse216" />
          <circle
             style="fill:#feca5d"
             r="33.700001"
             transform="matrix(0.1682,-0.9858,0.9858,0.1682,227.2142,1156.5929)"
             class="st0"
             cx="798.90002"
             cy="443.70001"
             id="ellipse218" />
          <ellipse
             style="fill:#ffffff"
             transform="matrix(0.5198,-0.8543,0.8543,0.5198,-14.1075,747.7414)"
             class="st2"
             cx="658.09998"
             cy="386.39999"
             rx="42.700001"
             ry="53.900002"
             id="ellipse220" />
          <path
             style="fill:#feca5d"
             inkscape:connector-curvature="0"
             class="st0"
             d="m 622.8,371.9 c 9.7,-15.9 30.4,-21 46.3,-11.3 19.2,11.7 17.6,35.9 11.3,46.3 -9.7,15.9 -30.4,21 -46.3,11.3 -16,-9.7 -21,-30.4 -11.3,-46.3 z"
             id="path222" />
          <polyline
             style="fill:#feca5d"
             class="st0"
             points="819.3,389 818.3,324 883.4,323  "
             id="polyline224" />
          <polyline
             style="fill:#feca5d"
             class="st0"
             points="754.1,324.9 819.2,324 818.2,258.9  "
             id="polyline226" />
          <circle
             style="fill:#cc9237"
             r="9.8000002"
             transform="matrix(0.9999,-0.01505521,0.01505521,0.9999,-4.7848,12.3569)"
             class="st1"
             cx="818.29999"
             cy="324"
             id="ellipse228" />
        </g>
        <g
           id="Calque_2">
          <polygon
             style="fill:#cc9237"
             class="st1"
             points="340.3,160 463.5,283.6 554.4,283.5 680.2,167.8 680.4,609.4 335.6,607.7 "
             id="polygon231" />
          <polygon
             style="fill:#feca5d"
             class="st0"
             points="382,292.4 353.3,284.5 349.8,184.2 "
             id="polygon233" />
          <polyline
             style="fill:#feca5d"
             class="st0"
             points="672.1,288.4 671.6,188 643.7,297.9  "
             id="polyline235" />
          <polygon
             style="fill:#feca5d"
             class="st0"
             points="530.6,451.1 538.3,458.8 514.8,482.4 496.3,482.4 473.5,459.6 481.4,451.1 "
             id="polygon237" />
          <path
             style="fill:none;stroke:#feca5d;stroke-width:5;stroke-miterlimit:10"
             inkscape:connector-curvature="0"
             class="st5"
             d="m 506.4,496.7 c 0,11.7 -19.7,21.2 -44.1,21.2"
             id="path239" />
          <path
             style="fill:none;stroke:#feca5d;stroke-width:5;stroke-miterlimit:10"
             inkscape:connector-curvature="0"
             class="st5"
             d="m 506.4,496.7 c 0,11.7 19.8,21.1 44.2,21.1"
             id="path241" />
          <path
             style="fill:none;stroke:#ffffff;stroke-width:4;stroke-miterlimit:10"
             inkscape:connector-curvature="0"
             class="st6"
             d="m 361.9,406 c 31.9,-29.7 81.8,-28 111.6,3.9"
             id="path243" />
          <path
             style="fill:none;stroke:#ffffff;stroke-width:4;stroke-miterlimit:10"
             inkscape:connector-curvature="0"
             class="st6"
             d="M 642.9,405.7 C 610.9,376 561,377.9 531.3,409.9"
             id="path245" />
          <path
             style="fill:none;stroke:#ffffff;stroke-width:2;stroke-miterlimit:10"
             inkscape:connector-curvature="0"
             class="st7"
             d="m 466.5,490.1 c 0,-10.4 -38.9,-18.8 -86.9,-18.7"
             id="path247" />
          <path
             style="fill:none;stroke:#ffffff;stroke-width:2;stroke-miterlimit:10"
             inkscape:connector-curvature="0"
             class="st7"
             d="m 462.2,493.4 c 0,-3.9 -44.8,-7 -100.3,-6.9"
             id="path249" />
          <path
             style="fill:none;stroke:#ffffff;stroke-width:2;stroke-miterlimit:10"
             inkscape:connector-curvature="0"
             class="st7"
             d="m 466.5,502.3 c 0,2.7 -37,5 -82.7,5"
             id="path251" />
          <path
             style="fill:none;stroke:#ffffff;stroke-width:2;stroke-miterlimit:10"
             inkscape:connector-curvature="0"
             class="st7"
             d="m 538.9,490.6 c 0,-10.4 38.9,-18.8 86.9,-18.9"
             id="path253" />
          <path
             style="fill:none;stroke:#ffffff;stroke-width:2;stroke-miterlimit:10"
             inkscape:connector-curvature="0"
             class="st7"
             d="m 543.1,493.9 c 0,-3.9 44.8,-7.1 100.2,-7.2"
             id="path255" />
          <path
             style="fill:none;stroke:#ffffff;stroke-width:2;stroke-miterlimit:10"
             inkscape:connector-curvature="0"
             class="st7"
             d="m 538.9,502.9 c 0,2.7 37,4.9 82.7,4.8"
             id="path257" />
        </g>
        <g
           id="Calque_1">
          <rect
             style="fill:#cc9237"
             x="143.7"
             y="602.5"
             class="st1"
             width="705.5"
             height="13.8"
             id="rect260" />
          <g
             id="g276">
            <path
               style="fill:#cc9237"
               inkscape:connector-curvature="0"
               class="st1"
               d="m 234.4,759.5 c 0.9,1.7 1.7,3.4 2.4,4.9 0.7,1.6 1.2,3.2 1.5,4.9 -3.8,1.9 -8.4,3.4 -13.7,4.5 -5.3,1.1 -10.9,1.6 -16.8,1.6 -8.3,0 -15.8,-1.4 -22.6,-4.1 -6.8,-2.7 -12.7,-6.7 -17.6,-11.9 -4.9,-5.2 -8.6,-11.7 -11.4,-19.4 -2.7,-7.7 -4.1,-16.6 -4.1,-26.6 0,-10.2 1.3,-19.4 4,-27.4 2.7,-8 6.4,-14.8 11.2,-20.3 4.8,-5.5 10.6,-9.7 17.5,-12.6 6.8,-2.9 14.5,-4.3 23,-4.3 7.1,0 13.1,0.5 17.8,1.5 4.7,1 8.2,1.9 10.3,2.6 -0.2,2 -0.5,3.8 -0.9,5.1 -0.4,1.4 -1,3 -1.8,4.9 -1.5,-0.5 -3,-0.9 -4.5,-1.4 -1.5,-0.5 -3.3,-0.9 -5.2,-1.2 -1.9,-0.3 -4.2,-0.6 -6.7,-0.9 -2.5,-0.2 -5.5,-0.3 -8.9,-0.3 -6.7,0 -12.7,1.2 -18,3.7 -5.3,2.4 -9.8,6 -13.6,10.7 -3.7,4.7 -6.6,10.3 -8.6,17.1 -2,6.7 -3.1,14.3 -3.1,22.9 0,8.8 1.1,16.4 3.4,22.9 2.3,6.5 5.4,11.9 9.4,16.1 4,4.3 8.7,7.4 14.1,9.5 5.4,2 11.2,3.1 17.4,3.1 5.3,0 10.1,-0.5 14.5,-1.5 4.5,-1.2 8.1,-2.5 11,-4.1 z"
               id="path262" />
            <path
               style="fill:#cc9237"
               inkscape:connector-curvature="0"
               class="st1"
               d="m 263.3,650.9 c 0.8,-0.1 1.8,-0.2 2.9,-0.3 1.1,-0.1 2.1,-0.1 3.1,-0.1 1,0 2,0 3.1,0.1 1,0.1 1.9,0.1 2.7,0.3 l 0,52.2 60,0 0,-52.2 c 0.8,-0.1 1.7,-0.2 2.7,-0.3 1,-0.1 2,-0.1 3.1,-0.1 0.9,0 1.9,0 3.1,0.1 1.1,0.1 2.1,0.1 2.9,0.3 l 0,122.6 c -0.7,0.1 -1.6,0.2 -2.6,0.3 -1.1,0.1 -2.2,0.1 -3.3,0.1 -1,0 -2,0 -3.1,-0.1 -1,-0.1 -1.9,-0.1 -2.7,-0.3 l 0,-59.7 -60,0 0,59.7 c -0.8,0.1 -1.7,0.2 -2.7,0.3 -1,0.1 -2,0.1 -3.1,0.1 -1.1,0 -2.2,0 -3.3,-0.1 -1.1,-0.1 -2,-0.1 -2.6,-0.3 l 0,-122.6 z"
               id="path264" />
            <path
               style="fill:#cc9237"
               inkscape:connector-curvature="0"
               class="st1"
               d="m 407.9,650.9 c 0.8,-0.1 1.9,-0.2 3.2,-0.3 1.4,-0.1 2.6,-0.1 3.7,-0.1 1.2,0 2.5,0 3.8,0.1 1.3,0.1 2.3,0.1 3.1,0.3 l 40.7,122.6 c -0.7,0.1 -1.6,0.2 -2.9,0.3 -1.2,0.1 -2.4,0.1 -3.6,0.1 -1,0 -2.1,0 -3.2,-0.1 -1.1,-0.1 -2.1,-0.1 -2.9,-0.3 l -10.2,-31.2 -50.2,0 -9.7,31.2 c -0.9,0.1 -2,0.2 -3.1,0.3 -1.2,0.1 -2.3,0.1 -3.3,0.1 -1.1,0 -2.3,0 -3.5,-0.1 -1.2,-0.1 -2.1,-0.1 -2.8,-0.3 z m 28.5,80.5 -21.9,-68.2 -21.5,68.2 z"
               id="path266" />
            <path
               style="fill:#cc9237"
               inkscape:connector-curvature="0"
               class="st1"
               d="m 491.9,661.5 -32.7,0 c -0.1,-0.7 -0.2,-1.5 -0.3,-2.5 -0.1,-1 -0.1,-1.9 -0.1,-2.8 0,-0.8 0,-1.7 0.1,-2.7 0.1,-1 0.1,-1.9 0.3,-2.6 l 77.2,0 c 0.1,0.7 0.2,1.5 0.3,2.4 0.1,0.9 0.1,1.8 0.1,2.7 0,0.8 0,1.7 -0.1,2.8 -0.1,1.1 -0.1,2 -0.3,2.6 l -32.7,0 0,112.1 c -0.8,0.1 -1.7,0.2 -2.7,0.3 -1,0.1 -2,0.1 -3.1,0.1 -1.1,0 -2.2,0 -3.3,-0.1 -1.1,-0.1 -2,-0.1 -2.6,-0.3 l 0,-112 z"
               id="path268" />
            <path
               style="fill:#cc9237"
               inkscape:connector-curvature="0"
               class="st1"
               d="m 594.5,775.6 c -8.5,0 -15.9,-1.6 -22.2,-4.7 -6.3,-3.1 -11.6,-7.5 -15.7,-13.1 -4.1,-5.6 -7.2,-12.3 -9.3,-20.1 -2.1,-7.8 -3.1,-16.3 -3.1,-25.5 0,-9.2 1,-17.7 3.1,-25.4 2.1,-7.7 5.2,-14.4 9.3,-20 4.1,-5.6 9.4,-10 15.7,-13.1 6.3,-3.1 13.7,-4.7 22.2,-4.7 8.5,0 15.9,1.6 22.2,4.7 6.3,3.1 11.6,7.5 15.7,13.1 4.1,5.6 7.2,12.3 9.3,20 2.1,7.7 3.1,16.2 3.1,25.4 0,9.2 -1,17.7 -3.1,25.5 -2.1,7.8 -5.2,14.5 -9.3,20.1 -4.1,5.6 -9.4,10 -15.7,13.1 -6.3,3.1 -13.7,4.7 -22.2,4.7 z m 0,-10.8 c 6.6,0 12.2,-1.3 17,-3.8 4.8,-2.6 8.7,-6.2 11.9,-10.8 3.2,-4.7 5.5,-10.2 7,-16.7 1.5,-6.5 2.3,-13.6 2.3,-21.3 0,-7.7 -0.8,-14.8 -2.3,-21.3 -1.5,-6.5 -3.9,-12 -7,-16.6 -3.2,-4.6 -7.1,-8.2 -11.9,-10.7 -4.7,-2.6 -10.4,-3.8 -17,-3.8 -6.6,0 -12.2,1.3 -17,3.8 -4.8,2.6 -8.8,6.1 -11.9,10.7 -3.1,4.6 -5.4,10.1 -7,16.6 -1.5,6.5 -2.3,13.6 -2.3,21.3 0,7.7 0.8,14.8 2.3,21.3 1.5,6.5 3.8,12.1 7,16.7 3.1,4.7 7.1,8.3 11.9,10.8 4.7,2.6 10.4,3.8 17,3.8 z"
               id="path270" />
            <path
               style="fill:#cc9237"
               inkscape:connector-curvature="0"
               class="st1"
               d="m 672.8,650.9 c 0.8,-0.1 1.8,-0.2 3.1,-0.3 1.3,-0.1 2.4,-0.1 3.3,-0.1 0.9,0 2,0 3.2,0.1 1.2,0.1 2.3,0.1 3.1,0.3 l 58.3,102.7 0,-102.7 c 0.8,-0.1 1.7,-0.2 2.6,-0.3 1,-0.1 2,-0.1 3,-0.1 0.9,0 1.9,0 3,0.1 1.1,0.1 2,0.1 2.8,0.3 l 0,122.6 c -0.7,0.1 -1.7,0.2 -3,0.3 -1.3,0.1 -2.5,0.1 -3.5,0.1 -0.9,0 -2,0 -3.2,-0.1 -1.2,-0.1 -2.3,-0.1 -3.1,-0.3 l -58.3,-101.8 0,101.8 c -0.8,0.1 -1.7,0.2 -2.6,0.3 -1,0.1 -2,0.1 -3,0.1 -1.1,0 -2.2,0 -3.2,-0.1 -1,-0.1 -1.9,-0.1 -2.5,-0.3 z"
               id="path272" />
            <path
               style="fill:#cc9237"
               inkscape:connector-curvature="0"
               class="st1"
               d="m 784.9,759.9 c 1.6,0.5 3.2,1 4.9,1.5 1.7,0.6 3.6,1.1 5.7,1.5 2.1,0.5 4.4,0.9 7,1.2 2.6,0.3 5.6,0.5 9,0.5 5.4,0 10.1,-0.7 14,-2 3.9,-1.3 7.1,-3.1 9.7,-5.3 2.5,-2.2 4.4,-4.8 5.7,-7.8 1.2,-3 1.9,-6.3 1.9,-9.8 0,-3.4 -0.4,-6.3 -1.3,-8.8 -0.8,-2.4 -2.3,-4.7 -4.4,-6.7 -2.1,-2 -5,-4 -8.6,-5.9 -3.7,-1.9 -8.3,-3.9 -13.8,-6.1 -4,-1.5 -7.7,-3.1 -11.3,-4.8 -3.6,-1.7 -6.7,-3.8 -9.4,-6.2 -2.7,-2.4 -4.9,-5.4 -6.4,-8.8 -1.6,-3.4 -2.4,-7.7 -2.4,-12.8 0,-9.2 3.3,-16.7 9.9,-22.3 6.6,-5.7 16.3,-8.5 28.9,-8.5 2.5,0 5,0.1 7.5,0.3 2.5,0.2 4.9,0.5 7.1,0.9 2.2,0.3 4.2,0.7 6.1,1.2 1.9,0.5 3.4,0.9 4.5,1.2 -0.2,1.7 -0.5,3.4 -0.9,5.2 -0.4,1.8 -0.9,3.4 -1.4,5 -2.7,-0.9 -6.2,-1.7 -10.4,-2.5 -4.2,-0.7 -8.5,-1.1 -12.6,-1.1 -9.4,0 -16.1,1.9 -20.2,5.8 -4.1,3.9 -6.1,8.8 -6.1,14.7 0,3.1 0.6,5.7 1.9,8 1.2,2.3 3,4.3 5.2,6 2.2,1.7 4.8,3.3 7.9,4.7 3.1,1.4 6.3,2.8 9.8,4.2 4.7,1.9 9.2,3.9 13.3,6 4.1,2 7.7,4.4 10.6,7.2 2.9,2.7 5.3,5.9 7,9.6 1.7,3.7 2.5,8.2 2.5,13.4 0,5.9 -1,11.2 -3.1,15.8 -2.1,4.6 -5.1,8.5 -8.9,11.6 -3.8,3.1 -8.5,5.5 -14.1,7.2 -5.5,1.6 -11.8,2.5 -18.7,2.5 -6.7,0 -12.2,-0.5 -16.6,-1.4 -4.4,-1 -8.5,-2.1 -12.4,-3.3 0.2,-1.7 0.6,-3.6 1.2,-5.5 0.4,-2.2 1,-4 1.7,-5.6 z"
               id="path274" />
          </g>
        </g>
      </g>
      <flowRoot
         inkscape:export-ydpi="90"
         inkscape:export-xdpi="90"
         style="font-style:normal;font-weight:normal;font-size:4.0915556px;line-height:1.25;font-family:sans-serif;letter-spacing:0px;word-spacing:0px;fill:#4d2f15;fill-opacity:1;stroke:none"
         id="flowRoot1199"
         xml:space="preserve"><flowRegion
           style="fill:#4d2f15;fill-opacity:1"
           id="flowRegion1201"><rect
             style="fill:#4d2f15;fill-opacity:1"
             y="105.92985"
             x="209.19287"
             height="65.716209"
             width="75.635651"
             id="rect1203" /></flowRegion><flowPara
           style="font-style:normal;font-variant:normal;font-weight:bold;font-stretch:normal;font-size:9.00142288px;font-family:'Saira Condensed';-inkscape-font-specification:'Saira Condensed, ';text-align:center;text-anchor:middle;fill:#4d2f15;fill-opacity:1"
           id="flowPara1205">Pour des services Internet libres !</flowPara></flowRoot>      <flowRoot
         inkscape:export-ydpi="90"
         inkscape:export-xdpi="90"
         style="font-style:normal;font-weight:normal;font-size:3.52777767px;line-height:1.25;font-family:sans-serif;letter-spacing:0px;word-spacing:0px;fill:#e5ae37;fill-opacity:1;stroke:none"
         id="flowRoot1199-2"
         xml:space="preserve"><flowRegion
           style="fill:#e5ae37;fill-opacity:1"
           id="flowRegion1201-6"><rect
             style="fill:#e5ae37;fill-opacity:1"
             y="270.03745"
             x="209.05861"
             height="30.468723"
             width="76.813263"
             id="rect1203-4" /></flowRegion><flowPara
           style="font-style:normal;font-variant:normal;font-weight:normal;font-stretch:normal;font-size:7.76111126px;font-family:Saira;-inkscape-font-specification:Saira;text-align:center;text-anchor:middle;fill:#e5ae37;fill-opacity:1"
           id="flowPara1205-5">www.chatons.org</flowPara></flowRoot>      <flowRoot
         inkscape:export-ydpi="90"
         inkscape:export-xdpi="90"
         transform="matrix(0.21060999,0,0,0.21060999,132.42907,161.04445)"
         style="font-style:normal;font-weight:normal;font-size:13.33333302px;line-height:1.25;font-family:sans-serif;letter-spacing:0px;word-spacing:0px;fill:#4d2f15;fill-opacity:1;stroke:none"
         id="flowRoot1199-2-1"
         xml:space="preserve"><flowRegion
           style="fill:#4d2f15;fill-opacity:1"
           id="flowRegion1201-6-7"><rect
             style="fill:#4d2f15;fill-opacity:1"
             y="147.20317"
             x="434.3656"
             height="397.91934"
             width="255.10843"
             id="rect1203-4-5" /></flowRegion><flowPara
           style="font-style:normal;font-variant:normal;font-weight:normal;font-stretch:normal;font-size:28.2563324px;font-family:Saira;-inkscape-font-specification:Saira;fill:#4d2f15;fill-opacity:1"
           id="flowPara4554"><flowSpan
   id="flowSpan5306"
   style="font-weight:bold;fill:#4d2f15;fill-opacity:1">C</flowSpan>OLLECTIF DES <flowSpan
   id="flowSpan5308"
   style="font-weight:bold;letter-spacing:0.17420299px;fill:#4d2f15;fill-opacity:1">H</flowSpan><flowSpan
   id="flowSpan5601"
   style="letter-spacing:0.17420299px">ÉBERGEURS</flowSpan><flowSpan
   id="flowSpan5310"
   style="font-weight:bold;fill:#4d2f15;fill-opacity:1"> A</flowSpan>LTERNATIFS <flowSpan
   id="flowSpan5312"
   style="font-weight:bold;fill:#4d2f15;fill-opacity:1">T</flowSpan>RANSPARENTS <flowSpan
   id="flowSpan5314"
   style="font-weight:bold;fill:#4d2f15;fill-opacity:1">O</flowSpan>UVERTS <flowSpan
   id="flowSpan5316"
   style="font-weight:bold;fill:#4d2f15;fill-opacity:1">N</flowSpan>EUTRES ET <flowSpan
   id="flowSpan5318"
   style="font-weight:bold;fill:#4d2f15;fill-opacity:1">S</flowSpan>OLIDAIRES</flowPara></flowRoot>    </g>
    <flowRoot
       xml:space="preserve"
       id="flowRoot1199-2-9"
       style="font-style:normal;font-weight:normal;font-size:13.33333302px;line-height:1.25;font-family:sans-serif;letter-spacing:0px;word-spacing:0px;fill:#999999;fill-opacity:1;stroke:none"
       transform="matrix(0.17389473,0.3011945,-0.3011945,0.17389473,7.7117734,-21.130069)"
       inkscape:export-xdpi="90"
       inkscape:export-ydpi="90"><flowRegion
         id="flowRegion1201-6-3"
         style="fill:#999999"><rect
           id="rect1203-4-4"
           width="246.47725"
           height="214.15233"
           x="434.3656"
           y="147.20317"
           style="fill:#999999" /></flowRegion><flowPara
         id="flowPara1205-5-1"
         style="font-style:normal;font-variant:normal;font-weight:normal;font-stretch:normal;font-size:29.33333397px;font-family:Saira;-inkscape-font-specification:Saira;text-align:center;text-anchor:middle;fill:#999999">Volet propre à chaque <flowSpan
   style="font-weight:bold"
   id="flowSpan5469">chaton</flowSpan></flowPara></flowRoot>    <g
       id="g4661"
       transform="translate(8.0311469,0)">
      <flowRoot
         inkscape:export-ydpi="90"
         inkscape:export-xdpi="90"
         transform="matrix(0.26034117,0,0,0.26034117,3.2111386,43.355421)"
         style="font-style:normal;font-weight:normal;font-size:13.33333302px;line-height:1.25;font-family:sans-serif;letter-spacing:0px;word-spacing:0px;fill:#4d2f15;fill-opacity:1;stroke:none"
         id="flowRoot1379"
         xml:space="preserve"><flowRegion
           style="fill:#000000;fill-opacity:1"
           id="flowRegion1381"><rect
             style="fill:#4d2f15;fill-opacity:1"
             y="557.32513"
             x="416.18286"
             height="162.8653"
             width="265.41833"
             id="rect1383" /></flowRegion><flowPara
           style="font-style:normal;font-variant:normal;font-weight:normal;font-stretch:normal;font-size:18.66666603px;font-family:Saira;-inkscape-font-specification:Saira;text-align:center;text-anchor:middle;fill:#4d2f15;fill-opacity:1"
           id="flowPara1385">Un <flowSpan
   id="flowSpan4599"
   style="font-style:normal;font-variant:normal;font-weight:bold;font-stretch:normal;font-family:Saira;-inkscape-font-specification:'Saira Bold'">C</flowSpan><flowSpan
   id="flowSpan5475"
   style="font-weight:bold;fill:#4d2f15;fill-opacity:1">haton</flowSpan> est un <flowSpan
   id="flowSpan5409"
   style="font-weight:bold;fill:#4d2f15;fill-opacity:1">fournisseur local de services</flowSpan> numériques <flowSpan
   id="flowSpan5411"
   style="font-weight:bold;fill:#4d2f15;fill-opacity:1">libres et respectueux</flowSpan> des libertés numériques.</flowPara></flowRoot>      <flowRoot
         inkscape:export-ydpi="90"
         inkscape:export-xdpi="90"
         transform="matrix(0.38589125,0,0,0.38589125,-61.432889,-37.77229)"
         style="font-style:normal;font-weight:normal;font-size:13.33333302px;line-height:1.25;font-family:sans-serif;letter-spacing:0px;word-spacing:0px;fill:#4d2f15;fill-opacity:1;stroke:none"
         id="flowRoot1379-6"
         xml:space="preserve"><flowRegion
           style="fill:#000000;fill-opacity:1"
           id="flowRegion1381-3"><rect
             style="fill:#4d2f15;fill-opacity:1"
             y="557.32513"
             x="416.18286"
             height="161.24847"
             width="244.21762"
             id="rect1383-9" /></flowRegion><flowPara
           style="font-style:normal;font-variant:normal;font-weight:bold;font-stretch:normal;font-size:18.66666603px;font-family:'Saira Condensed';-inkscape-font-specification:'Saira Condensed, ';text-align:center;text-anchor:middle;fill:#4d2f15;fill-opacity:1"
           id="flowPara1385-9">Miaou ?</flowPara></flowRoot>    </g>
    <g
       id="g4611"
       transform="translate(6.7850825,0)">
      <flowRoot
         inkscape:export-ydpi="90"
         inkscape:export-xdpi="90"
         transform="matrix(0.22127199,0,0,0.22127199,5.4992497,69.875362)"
         style="font-style:normal;font-weight:normal;font-size:13.33333302px;line-height:1.25;font-family:sans-serif;letter-spacing:0px;word-spacing:0px;fill:#e5ae37;fill-opacity:1;stroke:none"
         id="flowRoot1199-2-7"
         xml:space="preserve"><flowRegion
           style="fill:#e5ae37;fill-opacity:1"
           id="flowRegion1201-6-4"><rect
             style="fill:#e5ae37;fill-opacity:1"
             y="147.20317"
             x="434.3656"
             height="214.15233"
             width="246.47725"
             id="rect1203-4-1" /></flowRegion><flowPara
           style="font-style:normal;font-variant:normal;font-weight:normal;font-stretch:normal;font-size:29.33333397px;font-family:Saira;-inkscape-font-specification:Saira;text-align:center;text-anchor:middle;fill:#e5ae37;fill-opacity:1"
           id="flowPara1205-5-7">Liberté</flowPara></flowRoot>      <flowRoot
         inkscape:export-ydpi="90"
         inkscape:export-xdpi="90"
         transform="matrix(0.19329616,0,0,0.19329616,45.627222,81.062204)"
         style="font-style:normal;font-weight:normal;font-size:13.33333302px;line-height:1.25;font-family:sans-serif;letter-spacing:0px;word-spacing:0px;fill:#cc9237;fill-opacity:1;stroke:none"
         id="flowRoot1199-2-7-1"
         xml:space="preserve"><flowRegion
           style="fill:#cc9237;fill-opacity:1"
           id="flowRegion1201-6-4-1"><rect
             style="fill:#cc9237;fill-opacity:1"
             y="147.20317"
             x="434.3656"
             height="214.15233"
             width="246.47725"
             id="rect1203-4-1-1" /></flowRegion><flowPara
           style="font-style:normal;font-variant:normal;font-weight:normal;font-stretch:normal;font-size:29.33333397px;font-family:Saira;-inkscape-font-specification:Saira;text-align:center;text-anchor:middle;fill:#cc9237;fill-opacity:1"
           id="flowPara1205-5-7-7">Transparence</flowPara></flowRoot>      <flowRoot
         inkscape:export-ydpi="90"
         inkscape:export-xdpi="90"
         transform="matrix(0.18933717,0,0,0.18933717,60.29234,89.97319)"
         style="font-style:normal;font-weight:normal;font-size:13.33333302px;line-height:1.25;font-family:sans-serif;letter-spacing:0px;word-spacing:0px;fill:#e5ae37;fill-opacity:1;stroke:none"
         id="flowRoot1199-2-7-1-0"
         xml:space="preserve"><flowRegion
           style="fill:#e5ae37;fill-opacity:1"
           id="flowRegion1201-6-4-1-4"><rect
             style="fill:#e5ae37;fill-opacity:1"
             y="147.20317"
             x="434.3656"
             height="214.15233"
             width="246.47725"
             id="rect1203-4-1-1-0" /></flowRegion><flowPara
           style="font-style:normal;font-variant:normal;font-weight:normal;font-stretch:normal;font-size:29.33333397px;font-family:Saira;-inkscape-font-specification:Saira;text-align:center;text-anchor:middle;fill:#e5ae37;fill-opacity:1"
           id="flowPara1205-5-7-7-8">Confiance</flowPara></flowRoot>      <flowRoot
         inkscape:export-ydpi="90"
         inkscape:export-xdpi="90"
         transform="matrix(0.21818405,0,0,0.21818405,6.3159969,84.237291)"
         style="font-style:normal;font-weight:normal;font-size:13.33333302px;line-height:1.25;font-family:sans-serif;letter-spacing:0px;word-spacing:0px;fill:#feca5d;fill-opacity:1;stroke:none"
         id="flowRoot1199-2-7-1-5"
         xml:space="preserve"><flowRegion
           style="fill:#feca5d;fill-opacity:1"
           id="flowRegion1201-6-4-1-1"><rect
             style="fill:#feca5d;fill-opacity:1"
             y="147.20317"
             x="434.3656"
             height="214.15233"
             width="246.47725"
             id="rect1203-4-1-1-6" /></flowRegion><flowPara
           style="font-style:normal;font-variant:normal;font-weight:normal;font-stretch:normal;font-size:29.33333397px;font-family:Saira;-inkscape-font-specification:Saira;text-align:center;text-anchor:middle;fill:#feca5d;fill-opacity:1"
           id="flowPara1205-5-7-7-6">Vie Privée</flowPara></flowRoot>      <flowRoot
         inkscape:export-ydpi="90"
         inkscape:export-xdpi="90"
         transform="matrix(0.20091634,0,0,0.20091634,27.596687,95.710535)"
         style="font-style:normal;font-weight:normal;font-size:13.33333302px;line-height:1.25;font-family:sans-serif;letter-spacing:0px;word-spacing:0px;fill:#cc9237;fill-opacity:1;stroke:none"
         id="flowRoot1199-2-7-1-2"
         xml:space="preserve"><flowRegion
           style="fill:#cc9237;fill-opacity:1"
           id="flowRegion1201-6-4-1-19"><rect
             style="fill:#cc9237;fill-opacity:1"
             y="147.20317"
             x="434.3656"
             height="214.15233"
             width="246.47725"
             id="rect1203-4-1-1-64" /></flowRegion><flowPara
           style="font-style:normal;font-variant:normal;font-weight:normal;font-stretch:normal;font-size:29.33333397px;font-family:Saira;-inkscape-font-specification:Saira;text-align:center;text-anchor:middle;fill:#cc9237;fill-opacity:1"
           id="flowPara1205-5-7-7-80">Décentralisation</flowPara></flowRoot>      <flowRoot
         inkscape:export-ydpi="90"
         inkscape:export-xdpi="90"
         transform="matrix(0.24349348,0,0,0.24349348,-8.2851366,96.867455)"
         style="font-style:normal;font-weight:normal;font-size:13.33333302px;line-height:1.25;font-family:sans-serif;letter-spacing:0px;word-spacing:0px;fill:#e5ae37;fill-opacity:1;stroke:none"
         id="flowRoot1199-2-7-1-8"
         xml:space="preserve"><flowRegion
           style="fill:#e5ae37;fill-opacity:1"
           id="flowRegion1201-6-4-1-10"><rect
             style="fill:#e5ae37;fill-opacity:1"
             y="147.20317"
             x="434.3656"
             height="214.15233"
             width="246.47725"
             id="rect1203-4-1-1-2" /></flowRegion><flowPara
           style="font-style:normal;font-variant:normal;font-weight:normal;font-stretch:normal;font-size:29.33333397px;font-family:Saira;-inkscape-font-specification:Saira;text-align:center;text-anchor:middle;fill:#e5ae37;fill-opacity:1"
           id="flowPara1205-5-7-7-2">Proximité</flowPara></flowRoot>      <flowRoot
         inkscape:export-ydpi="90"
         inkscape:export-xdpi="90"
         transform="matrix(0.18933717,0,0,0.18933717,56.330585,106.39801)"
         style="font-style:normal;font-weight:normal;font-size:13.33333302px;line-height:1.25;font-family:sans-serif;letter-spacing:0px;word-spacing:0px;fill:#feca5d;fill-opacity:1;stroke:none"
         id="flowRoot1199-2-7-1-9"
         xml:space="preserve"><flowRegion
           style="fill:#feca5d;fill-opacity:1"
           id="flowRegion1201-6-4-1-7"><rect
             style="fill:#feca5d;fill-opacity:1"
             y="147.20317"
             x="434.3656"
             height="214.15233"
             width="246.47725"
             id="rect1203-4-1-1-5" /></flowRegion><flowPara
           style="font-style:normal;font-variant:normal;font-weight:normal;font-stretch:normal;font-size:29.33333397px;font-family:Saira;-inkscape-font-specification:Saira;text-align:center;text-anchor:middle;fill:#feca5d;fill-opacity:1"
           id="flowPara1205-5-7-7-64">Solidarité</flowPara></flowRoot>      <flowRoot
         inkscape:export-ydpi="90"
         inkscape:export-xdpi="90"
         transform="matrix(0.20092603,0,0,0.20092603,63.45068,97.077777)"
         style="font-style:normal;font-weight:normal;font-size:13.33333302px;line-height:1.25;font-family:sans-serif;letter-spacing:0px;word-spacing:0px;fill:#e5ae37;fill-opacity:1;stroke:none"
         id="flowRoot1199-2-7-1-8-7"
         xml:space="preserve"><flowRegion
           style="fill:#e5ae37;fill-opacity:1"
           id="flowRegion1201-6-4-1-10-8"><rect
             style="fill:#e5ae37;fill-opacity:1"
             y="147.20317"
             x="434.3656"
             height="214.15233"
             width="246.47725"
             id="rect1203-4-1-1-2-6" /></flowRegion><flowPara
           style="font-style:normal;font-variant:normal;font-weight:normal;font-stretch:normal;font-size:29.33333397px;font-family:Saira;-inkscape-font-specification:Saira;text-align:center;text-anchor:middle;fill:#e5ae37;fill-opacity:1"
           id="flowPara1205-5-7-7-2-0">Écoute</flowPara></flowRoot>      <flowRoot
         inkscape:export-ydpi="90"
         inkscape:export-xdpi="90"
         transform="matrix(0.26760569,0,0,0.26760569,-28.795964,101.42866)"
         style="font-style:normal;font-weight:normal;font-size:13.33333302px;line-height:1.25;font-family:sans-serif;letter-spacing:0px;word-spacing:0px;fill:#feca5d;fill-opacity:1;stroke:none"
         id="flowRoot1199-2-7-1-9-0"
         xml:space="preserve"><flowRegion
           style="fill:#feca5d;fill-opacity:1"
           id="flowRegion1201-6-4-1-7-6"><rect
             style="fill:#feca5d;fill-opacity:1"
             y="147.20317"
             x="434.3656"
             height="214.15233"
             width="246.47725"
             id="rect1203-4-1-1-5-4" /></flowRegion><flowPara
           style="font-style:normal;font-variant:normal;font-weight:normal;font-stretch:normal;font-size:29.33333397px;font-family:Saira;-inkscape-font-specification:Saira;text-align:center;text-anchor:middle;fill:#feca5d;fill-opacity:1"
           id="flowPara1205-5-7-7-64-3">Respect</flowPara></flowRoot>      <flowRoot
         inkscape:export-ydpi="90"
         inkscape:export-xdpi="90"
         transform="matrix(0.18933717,0,0,0.18933717,59.829279,114.12879)"
         style="font-style:normal;font-weight:normal;font-size:13.33333302px;line-height:1.25;font-family:sans-serif;letter-spacing:0px;word-spacing:0px;fill:#e5ae37;fill-opacity:1;stroke:none"
         id="flowRoot1199-2-7-1-0-7"
         xml:space="preserve"><flowRegion
           style="fill:#e5ae37;fill-opacity:1"
           id="flowRegion1201-6-4-1-4-5"><rect
             style="fill:#e5ae37;fill-opacity:1"
             y="147.20317"
             x="434.3656"
             height="214.15233"
             width="246.47725"
             id="rect1203-4-1-1-0-8" /></flowRegion><flowPara
           style="font-style:normal;font-variant:normal;font-weight:normal;font-stretch:normal;font-size:29.33333397px;font-family:Saira;-inkscape-font-specification:Saira;text-align:center;text-anchor:middle;fill:#e5ae37;fill-opacity:1"
           id="flowPara1205-5-7-7-8-1">Accompagnement</flowPara></flowRoot>      <flowRoot
         inkscape:export-ydpi="90"
         inkscape:export-xdpi="90"
         transform="matrix(0.21818405,0,0,0.21818405,30.485365,118.24309)"
         style="font-style:normal;font-weight:normal;font-size:13.33333302px;line-height:1.25;font-family:sans-serif;letter-spacing:0px;word-spacing:0px;fill:#feca5d;fill-opacity:1;stroke:none"
         id="flowRoot1199-2-7-1-5-0"
         xml:space="preserve"><flowRegion
           style="fill:#feca5d;fill-opacity:1"
           id="flowRegion1201-6-4-1-1-9"><rect
             style="fill:#feca5d;fill-opacity:1"
             y="147.20317"
             x="434.3656"
             height="214.15233"
             width="246.47725"
             id="rect1203-4-1-1-6-3" /></flowRegion><flowPara
           style="font-style:normal;font-variant:normal;font-weight:normal;font-stretch:normal;font-size:29.33333397px;font-family:Saira;-inkscape-font-specification:Saira;text-align:center;text-anchor:middle;fill:#feca5d;fill-opacity:1"
           id="flowPara1205-5-7-7-6-0">Confidentialité</flowPara></flowRoot>      <flowRoot
         inkscape:export-ydpi="90"
         inkscape:export-xdpi="90"
         transform="matrix(0.18933717,0,0,0.18933717,58.959607,74.702391)"
         style="font-style:normal;font-weight:normal;font-size:13.33333302px;line-height:1.25;font-family:sans-serif;letter-spacing:0px;word-spacing:0px;fill:#feca5d;fill-opacity:1;stroke:none"
         id="flowRoot1199-2-7-1-9-2"
         xml:space="preserve"><flowRegion
           style="fill:#feca5d;fill-opacity:1"
           id="flowRegion1201-6-4-1-7-64"><rect
             style="fill:#feca5d;fill-opacity:1"
             y="147.20317"
             x="434.3656"
             height="214.15233"
             width="246.47725"
             id="rect1203-4-1-1-5-3" /></flowRegion><flowPara
           style="font-style:normal;font-variant:normal;font-weight:normal;font-stretch:normal;font-size:29.33333397px;font-family:Saira;-inkscape-font-specification:Saira;text-align:center;text-anchor:middle;fill:#feca5d;fill-opacity:1"
           id="flowPara1205-5-7-7-64-8">Entraide</flowPara></flowRoot>    </g>
    <rect
       style="opacity:1;fill:#ffffff;fill-opacity:1;stroke:none;stroke-width:0.1;stroke-miterlimit:4;stroke-dasharray:none;stroke-opacity:1"
       id="rect5436-6"
       width="5.3793435"
       height="209.26321"
       x="192.87204"
       y="87.431694"
       inkscape:export-xdpi="90"
       inkscape:export-ydpi="90" />
    <g
       id="g4695"
       transform="translate(6.4807059,0)">
      <path
         inkscape:export-ydpi="90"
         inkscape:export-xdpi="90"
         style="opacity:0.98999999;fill:#eae8e3;fill-opacity:1;stroke:none;stroke-width:0.08790719;stroke-miterlimit:4;stroke-dasharray:none;stroke-dashoffset:0;stroke-opacity:1;filter:url(#filter6080)"
         d="m 107.40093,236.20874 80.96706,0 0,42.5603 -80.96706,0 z"
         id="rect5459-5"
         inkscape:connector-curvature="0" />
      <g
         id="g4682">
        <g
           id="g4675">
          <path
             inkscape:export-ydpi="90"
             inkscape:export-xdpi="90"
             style="opacity:0.98999999;fill:#feca5d;fill-opacity:1;stroke:none;stroke-width:0.08790719;stroke-miterlimit:4;stroke-dasharray:none;stroke-dashoffset:0;stroke-opacity:1"
             d="m 105.85049,234.8568 80.96706,0 0,42.5603 -80.96706,0 z"
             id="rect5459"
             inkscape:connector-curvature="0" />
          <flowRoot
             inkscape:export-ydpi="90"
             inkscape:export-xdpi="90"
             transform="matrix(0.20547834,0,0,0.20547834,27.001272,210.61815)"
             style="font-style:normal;font-weight:normal;font-size:13.33333302px;line-height:1.25;font-family:sans-serif;letter-spacing:0px;word-spacing:0px;fill:#4d2f15;fill-opacity:1;stroke:none"
             id="flowRoot1199-2-0-3"
             xml:space="preserve"><flowRegion
               style="fill:#4d2f15;fill-opacity:1"
               id="flowRegion1201-6-8-5"><rect
                 style="fill:#4d2f15;fill-opacity:1"
                 y="147.20317"
                 x="434.3656"
                 height="84.658226"
                 width="291.25534"
                 id="rect1203-4-0-6" /></flowRegion><flowPara
               style="font-style:normal;font-variant:normal;font-weight:bold;font-stretch:normal;font-size:29.33333397px;font-family:'Saira Condensed';-inkscape-font-specification:'Saira Condensed, ';text-align:center;text-anchor:middle;fill:#4d2f15;fill-opacity:1"
               id="flowPara1205-5-4-2">Rejoindre le collectif et créer un chaton ?</flowPara></flowRoot>        </g>
        <flowRoot
           xml:space="preserve"
           id="flowRoot1199-2-0-1-8-9"
           style="font-style:normal;font-weight:normal;font-size:2.5948801px;line-height:1.25;font-family:sans-serif;letter-spacing:0px;word-spacing:0px;fill:#4d2f15;fill-opacity:1;stroke:none"
           transform="translate(0,-3.3866665)"
           inkscape:export-xdpi="90"
           inkscape:export-ydpi="90"><flowRegion
             id="flowRegion1201-6-8-1-2-1"
             style="fill:#4d2f15;fill-opacity:1"><rect
               id="rect1203-4-0-3-3-2"
               width="62.662258"
               height="24.130974"
               x="114.83486"
               y="255.03079"
               style="fill:#4d2f15;fill-opacity:1" /></flowRegion><flowPara
             id="flowPara1205-5-4-5-0-7"
             style="font-style:normal;font-variant:normal;font-weight:normal;font-stretch:normal;font-size:5.70873642px;font-family:'Open Sans';-inkscape-font-specification:'Open Sans';text-align:center;text-anchor:middle;fill:#4d2f15;fill-opacity:1" /><flowPara
             style="font-style:normal;font-variant:normal;font-weight:normal;font-stretch:normal;font-size:5.70873642px;font-family:Saira;-inkscape-font-specification:Saira;text-align:center;text-anchor:middle;fill:#4d2f15;fill-opacity:1"
             id="flowPara1435-7-0">https://chatons.org/rejoindre-le-collectif</flowPara></flowRoot>      </g>
    </g>
    <text
       xml:space="preserve"
       style="font-style:normal;font-weight:normal;font-size:3.52777767px;line-height:1.25;font-family:sans-serif;letter-spacing:0px;word-spacing:0px;fill:#000000;fill-opacity:1;stroke:none;stroke-width:0.26458332"
       x="123.29583"
       y="189.05"
       id="text5473"><tspan
         sodipodi:role="line"
         id="tspan5471"
         x="123.29583"
         y="189.05"
         style="stroke-width:0.26458332" /></text>
    <rect
       style="opacity:1;fill:#ffffff;fill-opacity:1;stroke:none;stroke-width:0.1;stroke-miterlimit:4;stroke-dasharray:none;stroke-opacity:1"
       id="rect5436-7"
       width="5.3793435"
       height="219.24127"
       x="96.953987"
       y="77.679115"
       inkscape:export-xdpi="90"
       inkscape:export-ydpi="90" />
  </g>
  <style
     id="style177"
     type="text/css">
	.st0{fill:#FECA5D;}
	.st1{fill:#CC9237;}
	.st2{fill:#FFFFFF;}
	.st3{fill:none;stroke:#CC9237;stroke-width:5;stroke-miterlimit:10;}
	.st4{fill:#E5AE37;}
	.st5{fill:none;stroke:#FECA5D;stroke-width:5;stroke-miterlimit:10;}
	.st6{fill:none;stroke:#FFFFFF;stroke-width:4;stroke-miterlimit:10;}
	.st7{fill:none;stroke:#FFFFFF;stroke-width:2;stroke-miterlimit:10;}
</style>
</svg>
